[
  {
    "key": "DARK_THEME",
    "colorPrimary": "#011627",
    "colorPrimary2": "#263238",
    "colorPrimaryDark": "#ffffff",
    "colorOverlay": "rgba(0,0,0,0.2)",
    "colorAccent": "#ffcc8b",
    "colorAccent2": "#FF893E",
    "textPrimaryColor": "#ffffff",
    "textPrimaryDarkColor": "#000000",
    "textColorBleck": "",
    "textColorWhite": "#ffffff"
  },
  {
    "key": "LIGHT_THEME",
    "colorPrimary": "#ffffff",
    "colorPrimary2": "#eeeeee",
    "colorPrimaryDark": "#000000",
    "colorOverlay": "rgba(0,0,0,0.2)",
    "colorAccent": "#ffcc8b",
    "colorAccent2": "#FF893E",
    "textPrimaryColor": "#000000",
    "textPrimaryDarkColor": "#ffffff",
    "textColorBleck": "",
    "textColorWhite": "#ffffff"
  }
]